<?xml version="1.0" standalone="no"?>
<!DOCTYPE svg PUBLIC "-//W3C//DTD SVG 20010904//EN"
 "http://www.w3.org/TR/2001/REC-SVG-20010904/DTD/svg10.dtd">
<svg version="1.0" xmlns="http://www.w3.org/2000/svg"
 width="512.000000pt" height="512.000000pt" viewBox="0 0 512.000000 512.000000"
 preserveAspectRatio="xMidYMid meet">
<metadata>
Created by potrace 1.11, written by Peter Selinger 2001-2013
</metadata>
<g transform="translate(0.000000,512.000000) scale(0.100000,-0.100000)"
fill="#000000" stroke="none">
<path d="M2689 4926 c-2 -2 -35 -7 -74 -11 -76 -7 -105 -11 -147 -20 -16 -3
-38 -7 -50 -9 -63 -11 -214 -50 -303 -78 -55 -17 -102 -32 -105 -33 -3 -1 -14
-5 -25 -10 -11 -4 -56 -23 -100 -41 -201 -82 -505 -255 -620 -352 -6 -4 -17
-13 -26 -18 -17 -9 -74 -54 -114 -89 -13 -11 -45 -38 -71 -60 -84 -69 -287
-276 -367 -375 -43 -52 -85 -104 -94 -114 -89 -108 -243 -362 -322 -531 -29
-60 -56 -118 -61 -127 -18 -33 -95 -256 -123 -358 -15 -51 -43 -183 -53 -240
-25 -149 -29 -213 -28 -410 1 -166 6 -232 29 -375 29 -179 118 -425 213 -588
l34 -58 -26 -39 c-50 -76 -65 -124 -72 -228 -22 -339 342 -577 646 -422 25 13
59 33 75 45 l30 23 95 -45 c172 -82 408 -148 609 -171 84 -9 394 -9 486 0 73
8 217 31 294 49 25 6 53 12 61 14 8 2 54 15 101 29 48 14 91 26 95 28 8 2 134
-20 219 -38 59 -12 410 -12 500 1 152 21 170 25 295 60 420 120 783 370 1048
724 156 206 285 484 338 724 3 12 7 33 10 47 22 99 32 207 33 341 l2 157 -213
0 c-117 0 -225 1 -240 1 l-26 1 14 47 c8 26 16 57 19 68 2 11 13 65 25 120 12
55 23 114 25 130 2 17 7 62 12 100 10 88 11 408 0 495 -26 220 -85 434 -171
616 -43 91 -43 91 -24 115 119 150 126 376 18 534 -133 194 -402 251 -603 129
l-57 -35 -48 28 c-116 71 -300 146 -457 186 -94 24 -119 29 -205 42 -19 3 -51
8 -70 11 -38 7 -425 15 -431 10z m198 -545 c51 -14 60 -21 72 -54 17 -45 13
-84 -13 -114 l-24 -27 -154 1 c-163 1 -186 6 -213 47 -15 23 -15 72 0 108 7
17 54 43 90 50 36 7 203 -1 242 -11z"/>
</g>
</svg>
